<?xml version="1.0" encoding="utf-8"?>
<!-- Generator: Adobe Illustrator 24.3.0, SVG Export Plug-In . SVG Version: 6.00 Build 0)  -->
<svg version="1.1" id="Layer_1" xmlns="http://www.w3.org/2000/svg" xmlns:xlink="http://www.w3.org/1999/xlink" x="0px" y="0px"
	 viewBox="0 0 61 61" style="enable-background:new 0 0 61 61;" xml:space="preserve">
<style type="text/css">
	.st0{fill:none;stroke:url(#SVGID_1_);stroke-width:2.2;stroke-linecap:round;stroke-linejoin:round;}
</style>
<linearGradient id="SVGID_1_" gradientUnits="userSpaceOnUse" x1="9.4197" y1="12.1693" x2="48.2472" y2="50.9968">
	<stop  offset="0" style="stop-color:#0F62FE"/>
	<stop  offset="1" style="stop-color:#08BDBA"/>
</linearGradient>
<path class="st0" d="M26.2,20.3c5.3-2.4,11.5,0,13.9,5.3c2.4,5.3,0,11.5-5.3,13.9c-5.3,2.4-11.5,0-13.9-5.3
	c-1.1-2.4-1.2-5.2-0.4-7.7 M23.3,19.4c2.1,0,3.8,1.7,3.8,3.8S25.4,27,23.3,27s-3.8-1.7-3.8-3.8S21.2,19.4,23.3,19.4z M8.1,44.5h7v7
	h-7V44.5z M44.2,34.1l4.5-7.8l4.5,7.8H44.2z M48.5,34.1C46.2,44,36.3,50.2,26.3,47.9c-9.9-2.3-16.1-12.2-13.8-22.1S24.7,9.7,34.7,12
	c7,1.6,12.5,7.2,13.9,14.3 M8.5,44.5C0.5,32.3,3.8,16,16,7.9s28.5-4.7,36.5,7.5s4.7,28.5-7.5,36.5c-9.2,6.1-21.3,5.8-30.2-0.8"/>
</svg>
