<?xml version="1.0" encoding="utf-8"?>
<!-- Generator: Adobe Illustrator 24.3.0, SVG Export Plug-In . SVG Version: 6.00 Build 0)  -->
<svg version="1.1" id="locked" xmlns="http://www.w3.org/2000/svg" xmlns:xlink="http://www.w3.org/1999/xlink" x="0px" y="0px"
	 viewBox="0 0 60 60" style="enable-background:new 0 0 60 60;" xml:space="preserve">
<style type="text/css">
	.st0{fill:url(#SVGID_1_);}
</style>
<linearGradient id="SVGID_1_" gradientUnits="userSpaceOnUse" x1="0.785" y1="4.8311" x2="51.1179" y2="55.164">
	<stop  offset="0" style="stop-color:#0F62FE"/>
	<stop  offset="1" style="stop-color:#08BDBA"/>
</linearGradient>
<path class="st0" d="M37.1,7.9c0.9,0,1.6,0.7,1.6,1.6s-0.7,1.6-1.6,1.6s-1.6-0.7-1.6-1.6S36.2,7.9,37.1,7.9z M37.1,48.8
	c0.9,0,1.6,0.7,1.6,1.6s-0.7,1.6-1.6,1.6s-1.6-0.7-1.6-1.6S36.2,48.8,37.1,48.8z M37.1,28.4c0.9,0,1.6,0.7,1.6,1.6s-0.7,1.6-1.6,1.6
	s-1.6-0.7-1.6-1.6S36.2,28.4,37.1,28.4z M43.4,58.4H4.5c-0.6,0-1.1-0.5-1.1-1.1V43.7c0-0.6,0.5-1.1,1.1-1.1h38.9
	c0.6,0,1.1,0.5,1.1,1.1v13.6C44.5,57.9,44,58.4,43.4,58.4z M5.6,56.2h36.7V44.8H5.6V56.2z M43.4,37.9H4.5c-0.6,0-1.1-0.5-1.1-1.1
	V23.2c0-0.6,0.5-1.1,1.1-1.1h0h38.9c0.6,0,1.1,0.5,1.1,1.1v13.6C44.5,37.4,44,37.9,43.4,37.9z M5.6,35.7h36.7V24.3H5.6V35.7z
	 M43.4,17.5H4.5c-0.6,0-1.1-0.5-1.1-1.1l0,0V2.7c0-0.6,0.5-1.1,1.1-1.1h38.9c0.6,0,1.1,0.5,1.1,1.1v13.6C44.5,17,44,17.5,43.4,17.5z
	 M5.6,15.2h36.7V3.8H5.6V15.2L5.6,15.2z M53.3,51.6H48c-0.6-0.1-1.1-0.6-1-1.2c0.1-0.5,0.5-1,1-1h5.3c0.6,0,1.1-0.5,1.1-1.1V11.8
	c0-0.6-0.5-1.1-1.1-1.1H48c-0.6-0.1-1.1-0.6-1-1.2c0.1-0.5,0.5-1,1-1h5.3c1.9,0,3.4,1.5,3.4,3.4l0,0v36.5
	C56.7,50.1,55.2,51.6,53.3,51.6C53.3,51.6,53.3,51.6,53.3,51.6z M55.3,31.1H48c-0.6-0.1-1.1-0.6-1-1.2c0.1-0.5,0.5-1,1-1h7.4
	c0.6,0.1,1.1,0.6,1,1.2C56.3,30.7,55.9,31.1,55.3,31.1z"/>
</svg>
